\relax 
\catcode `"\active 
\babel@aux{ngerman}{}
\@writefile{toc}{\contentsline {subsection}{\numberline {3.1}Untergruppen}{1}}
\newlabel{def_subgroup}{{3.2}{1}}
\newlabel{thm_3-4}{{3.3}{1}}
\newlabel{thm_3-5}{{3.4}{1}}
\newlabel{def_3-5}{{3.5}{2}}
\newlabel{thm_3-6}{{3.6}{2}}
\newlabel{thm_3-7}{{3.7}{2}}
\newlabel{thm_3-9}{{3.8}{2}}
\newlabel{thm_3-10}{{3.9}{2}}
\@writefile{toc}{\contentsline {subsection}{\numberline {3.2}Nebenklassen und der Satz von Lagrange}{2}}
\newlabel{thm_3-12}{{3.11}{3}}
\newlabel{thm_Lagrange}{{3.12}{3}}
\newlabel{def_3-14}{{3.13}{4}}
\newlabel{cor_3-15}{{3.14}{4}}
\newlabel{ex_3-16}{{3.15}{4}}
\newlabel{ex_3-20}{{3.16}{4}}
\newlabel{cor_3-18}{{3.17}{4}}
\newlabel{cor_3-19}{{3.18}{4}}
